===============================================
[33;1;1m[36;6;2m-=Subfinder[0m v1.1.3 github.com/subfinder/subfinder
===============================================


Running Source: [33;1;1mAsk[0m
Running Source: [33;1;1mArchive.is[0m
Running Source: [33;1;1mBaidu[0m
Running Source: [33;1;1mBing[0m
Running Source: [33;1;1mCertDB[0m
Running Source: [33;1;1mCertificateTransparency[0m
Running Source: [33;1;1mCertspotter[0m
Running Source: [33;1;1mCommoncrawl[0m
Running Source: [33;1;1mCrt.sh[0m
Running Source: [33;1;1mDnsdb[0m
Running Source: [33;1;1mDNSDumpster[0m
Running Source: [33;1;1mDogpile[0m
Running Source: [33;1;1mExalead[0m
Running Source: [33;1;1mFindsubdomains[0m
Running Source: [33;1;1mGoogleter[0m
Running Source: [33;1;1mHackertarget[0m
Running Source: [33;1;1mIpv4Info[0m
Running Source: [33;1;1mPTRArchive[0m
Running Source: [33;1;1mSitedossier[0m
Running Source: [33;1;1mThreatcrowd[0m
Running Source: [33;1;1mThreatMiner[0m
Running Source: [33;1;1mWaybackArchive[0m
Running Source: [33;1;1mYahoo[0m

Found Wildcard DNS at host.com
 - 1.1.1.1
Running enumeration on host.com

dnsdb: Unexpected return status 503

crtsh: json: cannot unmarshal array into Go value of type crtsh.crtshObject

dogpile: Get https://www.dogpile.com/search/web?q=host.com&qsi=1: EOF


Total [33;1;1m4[0m Unique subdomains found for host.com

.host.com
mail.host.com
ww.host.com
www.host.com

